%YAML 1.1
%TAG !u! tag:unity3d.com,2011:
--- !u!1045 &1
EditorBuildSettings:
  m_ObjectHideFlags: 0
  serializedVersion: 2
  m_Scenes:
  - enabled: 0
    path: 
    guid: 00000000000000000000000000000000
  - enabled: 1
    path: Assets/Scenes/Menu.unity
    guid: eb3f124d5c59e8c408bb2c137b042002
  - enabled: 1
    path: Assets/Scenes/Game.unity
    guid: a8540e8944c6e714a93985a10a1377d3
  m_configObjects: {}
