%YAML 1.1
%TAG !u! tag:unity3d.com,2011:
--- !u!1045 &1
EditorBuildSettings:
  m_ObjectHideFlags: 0
  serializedVersion: 2
  m_Scenes:
  - enabled: 0
    path: 
    guid: 00000000000000000000000000000000
  - enabled: 1
    path: "Assets/Scenes/Men\xFA.unity"
    guid: caa97e09900189c4c9fd8a75f3c78584
  - enabled: 1
    path: Assets/Scenes/Lobby.unity
    guid: 82454a3aee4727c469df48699ce66ed7
  - enabled: 1
    path: Assets/Scenes/LevelTerror.unity
    guid: 007c9a76a6ffb544b98b38b81489d10c
  - enabled: 1
    path: Assets/Scenes/LevelFantasy.unity
    guid: 533a4844dd997c14bba3e3ef12d31d9e
  m_configObjects: {}
